PM566 Final Project
…
## # A tibble: 51 x 10
##    State  Date Month   Day  Year State_Code Cases_AIAN Cases_Total Deaths_AIAN
##    <chr> <int> <int> <int> <int>      <int>      <int>       <int>       <int>
##  1 AK        0     0     0     0          0          1           1           9
##  2 AL        0     0     0     0          0         51           0          51
##  3 AR        0     0     0     0          0          4           0          24
##  4 AZ        0     0     0     0          0          0           0           0
##  5 CA        0     0     0     0          0          0           0           0
##  6 CO        0     0     0     0          0          1           1           1
##  7 CT        0     0     0     0          0         23           0          23
##  8 DC        0     0     0     0          0          1           0          51
##  9 DE        0     0     0     0          0         51           4          51
## 10 FL        0     0     0     0          0         51           3          51
## # … with 41 more rows, and 1 more variable: Deaths_Total <int>
…
